…
## Examples

The following code returns a `tibble` containing the ADIs and
corresponding ADI-3 values of the fifty US states plus the District of
Columbia and Puerto Rico, using the 2019 edition of the 1-year ACS
estimates:

``` r
library(sociome)
get_adi(geography = "state", year = 2019, dataset = "acs1")
#> # A tibble: 52 × 6
#>    GEOID NAME                   ADI Financial_Strength Economic_Hardship_and_I…¹
#>    <chr> <chr>                <dbl>              <dbl>                     <dbl>
#>  1 01    Alabama              118.                81.4                     111. 
#>  2 02    Alaska                84.8              110.                       92.9
#>  3 04    Arizona              105.                97.3                     103. 
#>  4 05    Arkansas             120.                76.2                     111. 
#>  5 06    California            85.4              135.                       95.0
#>  6 08    Colorado              79.2              122.                       83.1
#>  7 09    Connecticut           87.8              119.                       95.2
#>  8 10    Delaware              96.9              104.                       96.9
#>  9 11    District of Columbia  68.4              171.                      124. 
#> 10 12    Florida              104.                98.3                     103. 
#> # ℹ 42 more rows
#> # ℹ abbreviated name: ¹​Economic_Hardship_and_Inequality
#> # ℹ 1 more variable: Educational_Attainment <dbl>
```
…
