…
---

    Code
      set2_adi_results
    Output
      # A tibble: 574 x 6
         GEOID        NAME                                                        ADI
         <chr>        <chr>                                                     <dbl>
       1 100010401001 Block Group 1, Census Tract 401, Kent County, Delaware    102. 
       2 100010401002 Block Group 2, Census Tract 401, Kent County, Delaware     98.3
       3 100010401003 Block Group 3, Census Tract 401, Kent County, Delaware    119. 
       4 100010402011 Block Group 1, Census Tract 402.01, Kent County, Delaware 100. 
       5 100010402012 Block Group 2, Census Tract 402.01, Kent County, Delaware 106. 
       6 100010402021 Block Group 1, Census Tract 402.02, Kent County, Delaware  92.4
       7 100010402022 Block Group 2, Census Tract 402.02, Kent County, Delaware  88.7
       8 100010402031 Block Group 1, Census Tract 402.03, Kent County, Delaware 108. 
       9 100010402032 Block Group 2, Census Tract 402.03, Kent County, Delaware  83.2
      10 100010405011 Block Group 1, Census Tract 405.01, Kent County, Delaware 105. 
         Financial_Strength Economic_Hardship_and_Inequality Educational_Attainment
                      <dbl>                            <dbl>                  <dbl>
       1               97.4                             98.5                   88.2
       2               93.2                             91.5                  100. 
       3               80.4                            104.                    61.2
       4               92.7                             95.7                  102. 
       5               89.5                            104.                   104. 
       6              106.                              90.7                   98.7
       7              101.                              81.6                  101. 
       8               88.3                            105.                   100. 
       9              109.                              77.9                  101. 
      10               91.6                            103.                   103. 
      # i 564 more rows
…
